{
	"variables": [],
	"info": {
		"name": "Bcapp",
		"_postman_id": "9d6209ca-292a-a17a-57b7-d81d46aeed10",
		"description": "Following requests will be served:\n\n1)http://localhost:8080/api/login - POST\n\n2)http://localhost:8080/api/register - POST\n\n3)http://localhost:8080/api/getAllTips - GET\n\n4)http://localhost:8080/api/getTip/{guid} - GET\n\n5)http://localhost:8080/api/storeTip/ - POST\n\n6)http://localhost:8080/api/updateTip/{guid} - POST\n\n7)http://localhost:8080/api/deleteTip/{guid} - DELETE\n\n\nCommon Header parameters for all requests:\n\n\n1)Content-Type - 'application/json'\n\n2)Accept - 'application/json'\n\n\nThere will be a third header paramteter 'Authorization' needed for all requests except (1)Api login and (2)Api Register requests.\n\n3)Authorization - 'Bearer <space>token'\n\n*token is the value you get as a response on succesful login request.\n\n\nYou can see more about 'Authorization' header in 'Api login' request doc section.\n",
		"schema": "https://schema.getpostman.com/json/collection/v2.0.0/collection.json"
	},
	"item": [
		{
			"name": "Api login",
			"request": {
				"url": {
					"raw": "http://localhost:8080/api/login?email=bcuser@example.com&password=bcuser123",
					"protocol": "http",
					"host": [
						"localhost"
					],
					"port": "8080",
					"path": [
						"api",
						"login"
					],
					"query": [
						{
							"key": "email",
							"value": "bcuser@example.com",
							"equals": true,
							"description": ""
						},
						{
							"key": "password",
							"value": "bcuser123",
							"equals": true,
							"description": ""
						}
					],
					"variable": []
				},
				"method": "POST",
				"header": [
					{
						"key": "Content-Type",
						"value": "application/json",
						"description": ""
					},
					{
						"key": "Accept",
						"value": "application/json",
						"description": ""
					}
				],
				"body": {
					"mode": "raw",
					"raw": ""
				},
				"description": "Login to obtain the Authorization token for all other requests\n\nApi request\n-----------\n\nPOST: http://localhost:8080/api/login\n\nparameters\n----------\n\n1)email\n\n2)password\n\n\nHeaders\n--------\n\n1)Content-Type - 'application/json'\n\n2)Accept - 'application/json'\n\nResponse\n--------\ntoken -This token will be used in 'Authorization' header for all other requests except register request.\n\n\nDefault user credentials:\n\n----------------------------\nemail:bcuser@example.com\npassword:bcuser123\n---------------------------\n\nOn succesfull login you will get a token as response. Use that token in 'Authorization' header of all other requests except for 'register' request such that:\n\n----------------------------------------\nAuthorization = 'Bearer <space>{token}'\n----------------------------------------\n\nFor each login the token will be diffrent.So use the exact token in other requests.\n\n\nExample:\n\nAuthorization = 'Bearer eyJ0eXAiOiJKV1QiLCJhbGciOiJSUzI1NiIsImp0aSI6IjA4MzU4OTg1Y2U4NzU0MGM4NzZhYWRjZDE3NTRmMzkzMmZjODdhOTdiNjYyMDFmNjRmNTViYjM0ZjEzMTc1YjNlMjMxYzVlMjg5ZTZkZWE2In0.eyJhdWQiOiIxIiwianRpIjoiMDgzNTg5ODVjZTg3NTQwYzg3NmFhZGNkMTc1NGYzOTMyZmM4N2E5N2I2NjIwMWY2NGY1NWJiMzRmMTMxNzViM2UyMzFjNWUyODllNmRlYTYiLCJpYXQiOjE1NDI1NTExMTAsIm5iZiI6MTU0MjU1MTExMCwiZXhwIjoxNTc0MDg3MTEwLCJzdWIiOiIxIiwic2NvcGVzIjpbXX0.Akt3bOfRezSdPN9kudtuas5RHVK3vscN2eyUkFlkTPnM5YhW2tjPDwLpSvWeuTvzfQApOmBGoQWGBFr69TqMZzURmUlLlzImNhcANgp6HUZyxTt8Z_O3UYtUpc6kFMi4MV7g_tTNiLtPqsClapmFNkjEEQ0wV-Gn7rRXpxysxHBwCAkX0VinEWYPjGch4UJ02avQjmQPCBaXdSTebfRQea1PdxxwY81K6l0tdEK8SnhNHX1sHsv4vS2Y-aDF3t0-O-G3yYUHfbcb84tNdFKFF427HROw1TLBd8yeCxuaXMXhzn2IxhHdWv45JJteJ8KYyF5lfOe1cCiU2lLRBSSEnTiM4ReZFqobBD6qtd_BUCYezVn8ZazPEnVfg0nT-gRR4P5mCG3rTMl-zO1hXAZggWyCAnzAxNUwozKiTZA2gXa564rlYPcXaOjsDb9yCwhMsesmgXQTIUd6hgDSfzsHuATeSMW_bfgou5WvBkbUd8IlKm7kbLcOyMFAw_ZsNlFpnGhkSZTUeYDRMr4G1O_ScZb_E6d67gbGRRV2XM2iF9273skGwUoWE1YIp_3ZWOmgAAHdblFGfvqW_MkbqRLD_XcVo66PzN0-Q3LebWuvS6F9FVdPL5lfOARar6AZcRypKSzl1jSsXJUYfvtGa4VedEv9nH5Ha6lQrdcczlw72_Q'"
			},
			"response": []
		},
		{
			"name": "Api Register User",
			"request": {
				"url": {
					"raw": "http://localhost:8080/api/register?name=bcuser2&email=bcuser2@example.com&password=bcuser123",
					"protocol": "http",
					"host": [
						"localhost"
					],
					"port": "8080",
					"path": [
						"api",
						"register"
					],
					"query": [
						{
							"key": "name",
							"value": "bcuser2",
							"equals": true,
							"description": ""
						},
						{
							"key": "email",
							"value": "bcuser2@example.com",
							"equals": true,
							"description": ""
						},
						{
							"key": "password",
							"value": "bcuser123",
							"equals": true,
							"description": ""
						}
					],
					"variable": []
				},
				"method": "POST",
				"header": [
					{
						"key": "Content-Type",
						"value": "application/json",
						"description": ""
					},
					{
						"key": "Accept",
						"value": "application/json",
						"description": ""
					}
				],
				"body": {
					"mode": "raw",
					"raw": ""
				},
				"description": "Registers a new user.\n\nApi request\n-----------\n\nPOST: http://localhost:8080/api/register\n\nparameters\n----------\n\n1)name\n\n2)email\n\n3)password\n\nHeaders\n-------\n\n1)Content-Type - 'application/json'\n\n2)Accept - 'application/json'"
			},
			"response": []
		},
		{
			"name": "Api Get all tips",
			"request": {
				"url": "http://localhost:8080/api/getAllTips",
				"method": "GET",
				"header": [
					{
						"key": "Content-Type",
						"value": "application/json",
						"description": ""
					},
					{
						"key": "Accept",
						"value": "application/json",
						"description": ""
					},
					{
						"key": "Authorization",
						"value": "Bearer eyJ0eXAiOiJKV1QiLCJhbGciOiJSUzI1NiIsImp0aSI6IjA4MzU4OTg1Y2U4NzU0MGM4NzZhYWRjZDE3NTRmMzkzMmZjODdhOTdiNjYyMDFmNjRmNTViYjM0ZjEzMTc1YjNlMjMxYzVlMjg5ZTZkZWE2In0.eyJhdWQiOiIxIiwianRpIjoiMDgzNTg5ODVjZTg3NTQwYzg3NmFhZGNkMTc1NGYzOTMyZmM4N2E5N2I2NjIwMWY2NGY1NWJiMzRmMTMxNzViM2UyMzFjNWUyODllNmRlYTYiLCJpYXQiOjE1NDI1NTExMTAsIm5iZiI6MTU0MjU1MTExMCwiZXhwIjoxNTc0MDg3MTEwLCJzdWIiOiIxIiwic2NvcGVzIjpbXX0.Akt3bOfRezSdPN9kudtuas5RHVK3vscN2eyUkFlkTPnM5YhW2tjPDwLpSvWeuTvzfQApOmBGoQWGBFr69TqMZzURmUlLlzImNhcANgp6HUZyxTt8Z_O3UYtUpc6kFMi4MV7g_tTNiLtPqsClapmFNkjEEQ0wV-Gn7rRXpxysxHBwCAkX0VinEWYPjGch4UJ02avQjmQPCBaXdSTebfRQea1PdxxwY81K6l0tdEK8SnhNHX1sHsv4vS2Y-aDF3t0-O-G3yYUHfbcb84tNdFKFF427HROw1TLBd8yeCxuaXMXhzn2IxhHdWv45JJteJ8KYyF5lfOe1cCiU2lLRBSSEnTiM4ReZFqobBD6qtd_BUCYezVn8ZazPEnVfg0nT-gRR4P5mCG3rTMl-zO1hXAZggWyCAnzAxNUwozKiTZA2gXa564rlYPcXaOjsDb9yCwhMsesmgXQTIUd6hgDSfzsHuATeSMW_bfgou5WvBkbUd8IlKm7kbLcOyMFAw_ZsNlFpnGhkSZTUeYDRMr4G1O_ScZb_E6d67gbGRRV2XM2iF9273skGwUoWE1YIp_3ZWOmgAAHdblFGfvqW_MkbqRLD_XcVo66PzN0-Q3LebWuvS6F9FVdPL5lfOARar6AZcRypKSzl1jSsXJUYfvtGa4VedEv9nH5Ha6lQrdcczlw72_Q",
						"description": ""
					}
				],
				"body": {
					"mode": "raw",
					"raw": ""
				},
				"description": "Returns all tips.Paginated for scalability.\n\nApi Request\n-----------\n\nGET: http://localhost:8080/api/getAllTips\n\nHeaders\n-------\n\n1)Content-Type - 'application/json'\n\n2)Accept - 'application/json'\n\n3)Authorization - 'Bearer <space>token'"
			},
			"response": []
		},
		{
			"name": "Api Get single tip",
			"request": {
				"url": "http://localhost:8080/api/getTip/2",
				"method": "GET",
				"header": [
					{
						"key": "Content-Type",
						"value": "application/json",
						"description": ""
					},
					{
						"key": "Accept",
						"value": "application/json",
						"description": ""
					},
					{
						"key": "Authorization",
						"value": "Bearer eyJ0eXAiOiJKV1QiLCJhbGciOiJSUzI1NiIsImp0aSI6IjA4MzU4OTg1Y2U4NzU0MGM4NzZhYWRjZDE3NTRmMzkzMmZjODdhOTdiNjYyMDFmNjRmNTViYjM0ZjEzMTc1YjNlMjMxYzVlMjg5ZTZkZWE2In0.eyJhdWQiOiIxIiwianRpIjoiMDgzNTg5ODVjZTg3NTQwYzg3NmFhZGNkMTc1NGYzOTMyZmM4N2E5N2I2NjIwMWY2NGY1NWJiMzRmMTMxNzViM2UyMzFjNWUyODllNmRlYTYiLCJpYXQiOjE1NDI1NTExMTAsIm5iZiI6MTU0MjU1MTExMCwiZXhwIjoxNTc0MDg3MTEwLCJzdWIiOiIxIiwic2NvcGVzIjpbXX0.Akt3bOfRezSdPN9kudtuas5RHVK3vscN2eyUkFlkTPnM5YhW2tjPDwLpSvWeuTvzfQApOmBGoQWGBFr69TqMZzURmUlLlzImNhcANgp6HUZyxTt8Z_O3UYtUpc6kFMi4MV7g_tTNiLtPqsClapmFNkjEEQ0wV-Gn7rRXpxysxHBwCAkX0VinEWYPjGch4UJ02avQjmQPCBaXdSTebfRQea1PdxxwY81K6l0tdEK8SnhNHX1sHsv4vS2Y-aDF3t0-O-G3yYUHfbcb84tNdFKFF427HROw1TLBd8yeCxuaXMXhzn2IxhHdWv45JJteJ8KYyF5lfOe1cCiU2lLRBSSEnTiM4ReZFqobBD6qtd_BUCYezVn8ZazPEnVfg0nT-gRR4P5mCG3rTMl-zO1hXAZggWyCAnzAxNUwozKiTZA2gXa564rlYPcXaOjsDb9yCwhMsesmgXQTIUd6hgDSfzsHuATeSMW_bfgou5WvBkbUd8IlKm7kbLcOyMFAw_ZsNlFpnGhkSZTUeYDRMr4G1O_ScZb_E6d67gbGRRV2XM2iF9273skGwUoWE1YIp_3ZWOmgAAHdblFGfvqW_MkbqRLD_XcVo66PzN0-Q3LebWuvS6F9FVdPL5lfOARar6AZcRypKSzl1jSsXJUYfvtGa4VedEv9nH5Ha6lQrdcczlw72_Q",
						"description": ""
					}
				],
				"body": {
					"mode": "raw",
					"raw": ""
				},
				"description": "Returns the details of a specific Tip if available.\n\nBy default, database is seeded with two tips with guid's 1 and 2.\n\nApi Request\n-----------\n\nGET: http://localhost:8080/api/getTip/{guid}\n\nHeaders\n-------\n\n1)Content-Type - 'application/json'\n\n2)Accept - 'application/json'\n\n3)Authorization - 'Bearer <space>token'"
			},
			"response": []
		},
		{
			"name": "Api Add Tip",
			"request": {
				"url": {
					"raw": "http://localhost:8080/api/storeTip?title=Man utd vs Man city&description=Manchester Derby.Manchester is red.",
					"protocol": "http",
					"host": [
						"localhost"
					],
					"port": "8080",
					"path": [
						"api",
						"storeTip"
					],
					"query": [
						{
							"key": "title",
							"value": "Man utd vs Man city",
							"equals": true,
							"description": ""
						},
						{
							"key": "description",
							"value": "Manchester Derby.Manchester is red.",
							"equals": true,
							"description": ""
						}
					],
					"variable": []
				},
				"method": "POST",
				"header": [
					{
						"key": "Content-Type",
						"value": "application/json",
						"description": ""
					},
					{
						"key": "Accept",
						"value": "application/json",
						"description": ""
					},
					{
						"key": "Authorization",
						"value": "Bearer eyJ0eXAiOiJKV1QiLCJhbGciOiJSUzI1NiIsImp0aSI6IjA4MzU4OTg1Y2U4NzU0MGM4NzZhYWRjZDE3NTRmMzkzMmZjODdhOTdiNjYyMDFmNjRmNTViYjM0ZjEzMTc1YjNlMjMxYzVlMjg5ZTZkZWE2In0.eyJhdWQiOiIxIiwianRpIjoiMDgzNTg5ODVjZTg3NTQwYzg3NmFhZGNkMTc1NGYzOTMyZmM4N2E5N2I2NjIwMWY2NGY1NWJiMzRmMTMxNzViM2UyMzFjNWUyODllNmRlYTYiLCJpYXQiOjE1NDI1NTExMTAsIm5iZiI6MTU0MjU1MTExMCwiZXhwIjoxNTc0MDg3MTEwLCJzdWIiOiIxIiwic2NvcGVzIjpbXX0.Akt3bOfRezSdPN9kudtuas5RHVK3vscN2eyUkFlkTPnM5YhW2tjPDwLpSvWeuTvzfQApOmBGoQWGBFr69TqMZzURmUlLlzImNhcANgp6HUZyxTt8Z_O3UYtUpc6kFMi4MV7g_tTNiLtPqsClapmFNkjEEQ0wV-Gn7rRXpxysxHBwCAkX0VinEWYPjGch4UJ02avQjmQPCBaXdSTebfRQea1PdxxwY81K6l0tdEK8SnhNHX1sHsv4vS2Y-aDF3t0-O-G3yYUHfbcb84tNdFKFF427HROw1TLBd8yeCxuaXMXhzn2IxhHdWv45JJteJ8KYyF5lfOe1cCiU2lLRBSSEnTiM4ReZFqobBD6qtd_BUCYezVn8ZazPEnVfg0nT-gRR4P5mCG3rTMl-zO1hXAZggWyCAnzAxNUwozKiTZA2gXa564rlYPcXaOjsDb9yCwhMsesmgXQTIUd6hgDSfzsHuATeSMW_bfgou5WvBkbUd8IlKm7kbLcOyMFAw_ZsNlFpnGhkSZTUeYDRMr4G1O_ScZb_E6d67gbGRRV2XM2iF9273skGwUoWE1YIp_3ZWOmgAAHdblFGfvqW_MkbqRLD_XcVo66PzN0-Q3LebWuvS6F9FVdPL5lfOARar6AZcRypKSzl1jSsXJUYfvtGa4VedEv9nH5Ha6lQrdcczlw72_Q",
						"description": ""
					}
				],
				"body": {
					"mode": "raw",
					"raw": ""
				},
				"description": "Add a new Tip.\n\n\nApi request\n-----------\n\nPOST: http://localhost:8080/api/storeTip\n\nParams\n------\n\n1) title\n2) description\n\nHeaders\n-------\n\n1)Content-Type - 'application/json'\n\n2)Accept - 'application/json'\n\n3)Authorization - 'Bearer <space>token'"
			},
			"response": []
		},
		{
			"name": "Api Update Tip",
			"request": {
				"url": {
					"raw": "http://localhost:8080/api/updateTip/3?title=Man utd vs Man city&description=Manchester Derby.Manchester is red.GGMU.",
					"protocol": "http",
					"host": [
						"localhost"
					],
					"port": "8080",
					"path": [
						"api",
						"updateTip",
						"3"
					],
					"query": [
						{
							"key": "title",
							"value": "Man utd vs Man city",
							"equals": true,
							"description": ""
						},
						{
							"key": "description",
							"value": "Manchester Derby.Manchester is red.GGMU.",
							"equals": true,
							"description": ""
						}
					],
					"variable": []
				},
				"method": "POST",
				"header": [
					{
						"key": "Content-Type",
						"value": "application/json",
						"description": ""
					},
					{
						"key": "Accept",
						"value": "application/json",
						"description": ""
					},
					{
						"key": "Authorization",
						"value": "Bearer eyJ0eXAiOiJKV1QiLCJhbGciOiJSUzI1NiIsImp0aSI6IjA4MzU4OTg1Y2U4NzU0MGM4NzZhYWRjZDE3NTRmMzkzMmZjODdhOTdiNjYyMDFmNjRmNTViYjM0ZjEzMTc1YjNlMjMxYzVlMjg5ZTZkZWE2In0.eyJhdWQiOiIxIiwianRpIjoiMDgzNTg5ODVjZTg3NTQwYzg3NmFhZGNkMTc1NGYzOTMyZmM4N2E5N2I2NjIwMWY2NGY1NWJiMzRmMTMxNzViM2UyMzFjNWUyODllNmRlYTYiLCJpYXQiOjE1NDI1NTExMTAsIm5iZiI6MTU0MjU1MTExMCwiZXhwIjoxNTc0MDg3MTEwLCJzdWIiOiIxIiwic2NvcGVzIjpbXX0.Akt3bOfRezSdPN9kudtuas5RHVK3vscN2eyUkFlkTPnM5YhW2tjPDwLpSvWeuTvzfQApOmBGoQWGBFr69TqMZzURmUlLlzImNhcANgp6HUZyxTt8Z_O3UYtUpc6kFMi4MV7g_tTNiLtPqsClapmFNkjEEQ0wV-Gn7rRXpxysxHBwCAkX0VinEWYPjGch4UJ02avQjmQPCBaXdSTebfRQea1PdxxwY81K6l0tdEK8SnhNHX1sHsv4vS2Y-aDF3t0-O-G3yYUHfbcb84tNdFKFF427HROw1TLBd8yeCxuaXMXhzn2IxhHdWv45JJteJ8KYyF5lfOe1cCiU2lLRBSSEnTiM4ReZFqobBD6qtd_BUCYezVn8ZazPEnVfg0nT-gRR4P5mCG3rTMl-zO1hXAZggWyCAnzAxNUwozKiTZA2gXa564rlYPcXaOjsDb9yCwhMsesmgXQTIUd6hgDSfzsHuATeSMW_bfgou5WvBkbUd8IlKm7kbLcOyMFAw_ZsNlFpnGhkSZTUeYDRMr4G1O_ScZb_E6d67gbGRRV2XM2iF9273skGwUoWE1YIp_3ZWOmgAAHdblFGfvqW_MkbqRLD_XcVo66PzN0-Q3LebWuvS6F9FVdPL5lfOARar6AZcRypKSzl1jSsXJUYfvtGa4VedEv9nH5Ha6lQrdcczlw72_Q",
						"description": ""
					}
				],
				"body": {
					"mode": "raw",
					"raw": ""
				},
				"description": "Adds a new Tip.\n\nApi request\n-----------\n\nPOST: http://localhost:8080/api/updateTip/{guid}\n\nParams\n------\n\n1) title\n2) description\n\nHeaders\n-------\n\n1)Content-Type - 'application/json'\n\n2)Accept - 'application/json'\n\n3)Authorization - 'Bearer <space>token'"
			},
			"response": []
		},
		{
			"name": "Api Delete Tip",
			"request": {
				"url": "http://localhost:8080/api/deleteTip/3",
				"method": "DELETE",
				"header": [
					{
						"key": "Content-Type",
						"value": "application/json",
						"description": ""
					},
					{
						"key": "Accept",
						"value": "application/json",
						"description": ""
					},
					{
						"key": "Authorization",
						"value": "Bearer eyJ0eXAiOiJKV1QiLCJhbGciOiJSUzI1NiIsImp0aSI6IjA4MzU4OTg1Y2U4NzU0MGM4NzZhYWRjZDE3NTRmMzkzMmZjODdhOTdiNjYyMDFmNjRmNTViYjM0ZjEzMTc1YjNlMjMxYzVlMjg5ZTZkZWE2In0.eyJhdWQiOiIxIiwianRpIjoiMDgzNTg5ODVjZTg3NTQwYzg3NmFhZGNkMTc1NGYzOTMyZmM4N2E5N2I2NjIwMWY2NGY1NWJiMzRmMTMxNzViM2UyMzFjNWUyODllNmRlYTYiLCJpYXQiOjE1NDI1NTExMTAsIm5iZiI6MTU0MjU1MTExMCwiZXhwIjoxNTc0MDg3MTEwLCJzdWIiOiIxIiwic2NvcGVzIjpbXX0.Akt3bOfRezSdPN9kudtuas5RHVK3vscN2eyUkFlkTPnM5YhW2tjPDwLpSvWeuTvzfQApOmBGoQWGBFr69TqMZzURmUlLlzImNhcANgp6HUZyxTt8Z_O3UYtUpc6kFMi4MV7g_tTNiLtPqsClapmFNkjEEQ0wV-Gn7rRXpxysxHBwCAkX0VinEWYPjGch4UJ02avQjmQPCBaXdSTebfRQea1PdxxwY81K6l0tdEK8SnhNHX1sHsv4vS2Y-aDF3t0-O-G3yYUHfbcb84tNdFKFF427HROw1TLBd8yeCxuaXMXhzn2IxhHdWv45JJteJ8KYyF5lfOe1cCiU2lLRBSSEnTiM4ReZFqobBD6qtd_BUCYezVn8ZazPEnVfg0nT-gRR4P5mCG3rTMl-zO1hXAZggWyCAnzAxNUwozKiTZA2gXa564rlYPcXaOjsDb9yCwhMsesmgXQTIUd6hgDSfzsHuATeSMW_bfgou5WvBkbUd8IlKm7kbLcOyMFAw_ZsNlFpnGhkSZTUeYDRMr4G1O_ScZb_E6d67gbGRRV2XM2iF9273skGwUoWE1YIp_3ZWOmgAAHdblFGfvqW_MkbqRLD_XcVo66PzN0-Q3LebWuvS6F9FVdPL5lfOARar6AZcRypKSzl1jSsXJUYfvtGa4VedEv9nH5Ha6lQrdcczlw72_Q",
						"description": ""
					}
				],
				"body": {
					"mode": "raw",
					"raw": ""
				},
				"description": "Add a new Tip.\n\n\nApi request\n-----------\n\nDELETE: http://localhost:8080/api/deleteTip/{guid} \n\n\nHeaders\n-------\n\n1)Content-Type - 'application/json'\n\n2)Accept - 'application/json'\n\n3)Authorization - 'Bearer <space>token'"
			},
			"response": []
		}
	]
}